^C:\USERS\JACK_\DOCUMENTS\VISUAL STUDIO 2015\PROJECTS\BULLSCOWSGAME\PROJECT_02\FBULLCOWGAME.CPP
/c /ZI /JMC /nologo /W3 /WX- /diagnostics:classic /Od /Oy- /D WIN32 /D _DEBUG /D _CONSOLE /D _UNICODE /D UNICODE /Gm- /EHsc /RTC1 /MDd /GS /fp:precise /Zc:wchar_t /Zc:forScope /Zc:inline /Fo"DEBUG\\" /Fd"DEBUG\VC141.PDB" /Gd /TP /analyze- /FC C:\USERS\JACK_\DOCUMENTS\VISUAL STUDIO 2015\PROJECTS\BULLSCOWSGAME\PROJECT_02\FBULLCOWGAME.CPP
^C:\USERS\JACK_\DOCUMENTS\VISUAL STUDIO 2015\PROJECTS\BULLSCOWSGAME\PROJECT_02\MAIN.CPP
/c /ZI /JMC /nologo /W3 /WX- /diagnostics:classic /Od /Oy- /D WIN32 /D _DEBUG /D _CONSOLE /D _UNICODE /D UNICODE /Gm- /EHsc /RTC1 /MDd /GS /fp:precise /Zc:wchar_t /Zc:forScope /Zc:inline /Fo"DEBUG\\" /Fd"DEBUG\VC141.PDB" /Gd /TP /analyze- /FC C:\USERS\JACK_\DOCUMENTS\VISUAL STUDIO 2015\PROJECTS\BULLSCOWSGAME\PROJECT_02\MAIN.CPP
